<?xml version="1.0" encoding="UTF-8" standalone="no"?>
<!-- Generator: Adobe Illustrator 19.0.0, SVG Export Plug-In . SVG Version: 6.00 Build 0)  -->

<svg
   xmlns:dc="http://purl.org/dc/elements/1.1/"
   xmlns:cc="http://creativecommons.org/ns#"
   xmlns:rdf="http://www.w3.org/1999/02/22-rdf-syntax-ns#"
   xmlns:svg="http://www.w3.org/2000/svg"
   xmlns="http://www.w3.org/2000/svg"
   xmlns:sodipodi="http://sodipodi.sourceforge.net/DTD/sodipodi-0.dtd"
   xmlns:inkscape="http://www.inkscape.org/namespaces/inkscape"
   version="1.1"
   id="Capa_1"
   x="0px"
   y="0px"
   viewBox="0 0 512 512"
   style="enable-background:new 0 0 512 512;"
   xml:space="preserve"
   sodipodi:docname="check.svg"
   inkscape:version="0.92.3 (2405546, 2018-03-11)"><metadata
   id="metadata1221"><rdf:RDF><cc:Work
       rdf:about=""><dc:format>image/svg+xml</dc:format><dc:type
         rdf:resource="http://purl.org/dc/dcmitype/StillImage" /></cc:Work></rdf:RDF></metadata><defs
   id="defs1219" /><sodipodi:namedview
   pagecolor="#ffffff"
   bordercolor="#666666"
   borderopacity="1"
   objecttolerance="10"
   gridtolerance="10"
   guidetolerance="10"
   inkscape:pageopacity="0"
   inkscape:pageshadow="2"
   inkscape:window-width="770"
   inkscape:window-height="860"
   id="namedview1217"
   showgrid="false"
   inkscape:zoom="0.4609375"
   inkscape:cx="137.76271"
   inkscape:cy="256"
   inkscape:window-x="810"
   inkscape:window-y="20"
   inkscape:window-maximized="0"
   inkscape:current-layer="Capa_1" />
<g
   id="g1178"
   style="fill:#ffffff;fill-opacity:1">
	<g
   id="g1176"
   style="fill:#ffffff;fill-opacity:1">
		<path
   d="M256,0C114.833,0,0,114.833,0,256s114.833,256,256,256s256-114.853,256-256S397.167,0,256,0z M256,472.341    c-119.275,0-216.341-97.046-216.341-216.341S136.725,39.659,256,39.659c119.295,0,216.341,97.046,216.341,216.341    S375.275,472.341,256,472.341z"
   id="path1174"
   style="fill:#ffffff;fill-opacity:1" />
	</g>
</g>
<g
   id="g1184"
   style="fill:#ffffff;fill-opacity:1">
	<g
   id="g1182"
   style="fill:#ffffff;fill-opacity:1">
		<path
   d="M373.451,166.965c-8.071-7.337-20.623-6.762-27.999,1.348L224.491,301.509l-58.438-59.409    c-7.714-7.813-20.246-7.932-28.039-0.238c-7.813,7.674-7.932,20.226-0.238,28.039l73.151,74.361    c3.748,3.807,8.824,5.929,14.138,5.929c0.119,0,0.258,0,0.377,0.02c5.473-0.119,10.629-2.459,14.297-6.504l135.059-148.722    C382.156,186.854,381.561,174.322,373.451,166.965z"
   id="path1180"
   style="fill:#ffffff;fill-opacity:1" />
	</g>
</g>
<g
   id="g1186">
</g>
<g
   id="g1188">
</g>
<g
   id="g1190">
</g>
<g
   id="g1192">
</g>
<g
   id="g1194">
</g>
<g
   id="g1196">
</g>
<g
   id="g1198">
</g>
<g
   id="g1200">
</g>
<g
   id="g1202">
</g>
<g
   id="g1204">
</g>
<g
   id="g1206">
</g>
<g
   id="g1208">
</g>
<g
   id="g1210">
</g>
<g
   id="g1212">
</g>
<g
   id="g1214">
</g>
</svg>